'{"code": 200, "msg": "\u67e5\u8be2\u6210\u529f", "data": {"pageSize": 100, "currentPage":
  1, "empty": false, "totalPages": 3, "totalElements": 264, "hasNext": true, "hasPre":
  false, "data": [{"remark": "\u6dfb\u52a0\u7ec4\u7ec7:\u7ec4\u7ec72", "createdAt":
  "2021-05-07 11:14:54", "operateCategory": 1, "account": "13989145375", "organizationName":
  "\u7ec4\u7ec72", "name": "\u8d75\u9756", "id": 264}, {"remark": "\u5220\u9664\u7ec4\u7ec7:\u7ec4\u7ec73",
  "createdAt": "2021-05-07 09:55:25", "operateCategory": 3, "account": "13989145375",
  "organizationName": "\u7ec4\u7ec73", "name": "\u8d75\u9756", "id": 263}, {"remark":
  "\u6dfb\u52a0\u7ec4\u7ec7:\u7ec4\u7ec73", "createdAt": "2021-05-07 09:52:36", "operateCategory":
  1, "account": "13989145375", "organizationName": "\u7ec4\u7ec73", "name": "\u8d75\u9756",
  "id": 262}, {"remark": "\u6dfb\u52a0\u7ec8\u7aef:\u5e3d\u5b50\u786c\u4ef6/\u738b\u6770-\u732b\u79d1",
  "createdAt": "2021-04-30 16:56:23", "operateCategory": 1, "account": "13989145375",
  "organizationName": "\u7ec4\u7ec71", "name": "\u8d75\u9756", "id": 261}, {"remark":
  "\u6dfb\u52a0\u7ec8\u7aef:\u5e3d\u5b50\u786c\u4ef6/\u7ec8\u7aef\u540d\u5b57", "createdAt":
  "2021-04-27 10:58:45", "operateCategory": 1, "account": "13989145375", "organizationName":
  "\u7ec4\u7ec71", "name": "\u8d75\u9756", "id": 260}, {"remark": "\u6dfb\u52a0\u7ec8\u7aef:\u5e3d\u5b50\u786c\u4ef6/\u7ec8\u7aef\u540d\u5b57",
  "createdAt": "2021-04-27 10:58:43", "operateCategory": 1, "account": "13989145375",
  "organizationName": "\u7ec4\u7ec71", "name": "\u8d75\u9756", "id": 259}, {"remark":
  "\u6dfb\u52a0\u7ec8\u7aef:\u5e3d\u5b50\u786c\u4ef6/\u7ec8\u7aef\u540d\u5b57", "createdAt":
  "2021-04-27 10:58:41", "operateCategory": 1, "account": "13989145375", "organizationName":
  "\u7ec4\u7ec71", "name": "\u8d75\u9756", "id": 258}, {"remark": "\u6dfb\u52a0\u7ec8\u7aef:\u5e3d\u5b50\u786c\u4ef6/\u7ec8\u7aef\u540d\u5b57",
  "createdAt": "2021-04-27 10:58:36", "operateCategory": 1, "account": "13989145375",
  "organizationName": "\u7ec4\u7ec71", "name": "\u8d75\u9756", "id": 257}, {"remark":
  "\u6dfb\u52a0\u7ec8\u7aef:\u5e3d\u5b50\u786c\u4ef6/\u7ec8\u7aef\u540d\u5b57", "createdAt":
  "2021-04-27 10:58:34", "operateCategory": 1, "account": "13989145375", "organizationName":
  "\u7ec4\u7ec71", "name": "\u8d75\u9756", "id": 256}, {"remark": "\u6dfb\u52a0\u7ec8\u7aef:\u5e3d\u5b50\u786c\u4ef6/\u7ec8\u7aef\u540d\u5b57",
  "createdAt": "2021-04-27 10:58:33", "operateCategory": 1, "account": "13989145375",
  "organizationName": "\u7ec4\u7ec71", "name": "\u8d75\u9756", "id": 255}, {"remark":
  "\u6dfb\u52a0\u7ec8\u7aef:\u5e3d\u5b50\u786c\u4ef6/\u7ec8\u7aef\u540d\u5b57", "createdAt":
  "2021-04-27 10:58:28", "operateCategory": 1, "account": "13989145375", "organizationName":
  "\u7ec4\u7ec71", "name": "\u8d75\u9756", "id": 254}, {"remark": "\u6dfb\u52a0\u7ec8\u7aef:\u5e3d\u5b50\u786c\u4ef6/\u7ec8\u7aef\u540d\u5b57",
  "createdAt": "2021-04-27 10:58:26", "operateCategory": 1, "account": "13989145375",
  "organizationName": "\u7ec4\u7ec71", "name": "\u8d75\u9756", "id": 253}, {"remark":
  "\u6dfb\u52a0\u7ec8\u7aef:\u5e3d\u5b50\u786c\u4ef6/\u7ec8\u7aef\u540d\u5b57", "createdAt":
  "2021-04-27 10:58:24", "operateCategory": 1, "account": "13989145375", "organizationName":
  "\u7ec4\u7ec71", "name": "\u8d75\u9756", "id": 252}, {"remark": "\u6dfb\u52a0\u7ec8\u7aef:\u5e3d\u5b50\u786c\u4ef6/\u7ec8\u7aef\u540d\u5b57",
  "createdAt": "2021-04-27 10:58:22", "operateCategory": 1, "account": "13989145375",
  "organizationName": "\u7ec4\u7ec71", "name": "\u8d75\u9756", "id": 251}, {"remark":
  "\u6dfb\u52a0\u7ec8\u7aef:\u5e3d\u5b50\u786c\u4ef6/\u7ec8\u7aef\u540d\u5b57", "createdAt":
  "2021-04-27 10:58:21", "operateCategory": 1, "account": "13989145375", "organizationName":
  "\u7ec4\u7ec71", "name": "\u8d75\u9756", "id": 250}, {"remark": "\u6dfb\u52a0\u7ec8\u7aef:\u5e3d\u5b50\u786c\u4ef6/\u7ec8\u7aef\u540d\u5b57",
  "createdAt": "2021-04-27 10:58:19", "operateCategory": 1, "account": "13989145375",
  "organizationName": "\u7ec4\u7ec71", "name": "\u8d75\u9756", "id": 249}, {"remark":
  "\u6dfb\u52a0\u7ec8\u7aef:\u5e3d\u5b50\u786c\u4ef6/\u7ec8\u7aef\u540d\u5b57", "createdAt":
  "2021-04-27 10:58:16", "operateCategory": 1, "account": "13989145375", "organizationName":
  "\u7ec4\u7ec71", "name": "\u8d75\u9756", "id": 248}, {"remark": "\u6dfb\u52a0\u7ec8\u7aef:\u5e3d\u5b50\u786c\u4ef6/\u7ec8\u7aef\u540d\u5b57",
  "createdAt": "2021-04-27 10:58:14", "operateCategory": 1, "account": "13989145375",
  "organizationName": "\u7ec4\u7ec71", "name": "\u8d75\u9756", "id": 247}, {"remark":
  "\u6dfb\u52a0\u7ec8\u7aef:\u5e3d\u5b50\u786c\u4ef6/\u7ec8\u7aef\u540d\u5b57", "createdAt":
  "2021-04-27 10:58:13", "operateCategory": 1, "account": "13989145375", "organizationName":
  "\u7ec4\u7ec71", "name": "\u8d75\u9756", "id": 246}, {"remark": "\u6dfb\u52a0\u7ec8\u7aef:\u5e3d\u5b50\u786c\u4ef6/\u7ec8\u7aef\u540d\u5b57",
  "createdAt": "2021-04-27 10:58:11", "operateCategory": 1, "account": "13989145375",
  "organizationName": "\u7ec4\u7ec71", "name": "\u8d75\u9756", "id": 245}, {"remark":
  "\u6dfb\u52a0\u7ec8\u7aef:\u5e3d\u5b50\u786c\u4ef6/\u7ec8\u7aef\u540d\u5b57", "createdAt":
  "2021-04-27 10:58:10", "operateCategory": 1, "account": "13989145375", "organizationName":
  "\u7ec4\u7ec71", "name": "\u8d75\u9756", "id": 244}, {"remark": "\u6dfb\u52a0\u7ec8\u7aef:\u5e3d\u5b50\u786c\u4ef6/\u7ec8\u7aef\u540d\u5b57",
  "createdAt": "2021-04-27 10:58:08", "operateCategory": 1, "account": "13989145375",
  "organizationName": "\u7ec4\u7ec71", "name": "\u8d75\u9756", "id": 243}, {"remark":
  "\u6dfb\u52a0\u7ec8\u7aef:\u5e3d\u5b50\u786c\u4ef6/\u7ec8\u7aef\u540d\u5b57", "createdAt":
  "2021-04-27 10:58:06", "operateCategory": 1, "account": "13989145375", "organizationName":
  "\u7ec4\u7ec71", "name": "\u8d75\u9756", "id": 242}, {"remark": "\u6dfb\u52a0\u7ec8\u7aef:\u5e3d\u5b50\u786c\u4ef6/\u7ec8\u7aef\u540d\u5b57",
  "createdAt": "2021-04-27 10:58:02", "operateCategory": 1, "account": "13989145375",
  "organizationName": "\u7ec4\u7ec71", "name": "\u8d75\u9756", "id": 241}, {"remark":
  "\u6dfb\u52a0\u7ec8\u7aef:\u5e3d\u5b50\u786c\u4ef6/\u7ec8\u7aef\u540d\u5b57", "createdAt":
  "2021-04-27 10:58:01", "operateCategory": 1, "account": "13989145375", "organizationName":
  "\u7ec4\u7ec71", "name": "\u8d75\u9756", "id": 240}, {"remark": "\u6dfb\u52a0\u7ec8\u7aef:\u5e3d\u5b50\u786c\u4ef6/\u7ec8\u7aef\u540d\u5b57",
  "createdAt": "2021-04-27 10:57:59", "operateCategory": 1, "account": "13989145375",
  "organizationName": "\u7ec4\u7ec71", "name": "\u8d75\u9756", "id": 239}, {"remark":
  "\u6dfb\u52a0\u7ec8\u7aef:\u5e3d\u5b50\u786c\u4ef6/\u7ec8\u7aef\u540d\u5b57", "createdAt":
  "2021-04-27 10:57:57", "operateCategory": 1, "account": "13989145375", "organizationName":
  "\u7ec4\u7ec71", "name": "\u8d75\u9756", "id": 238}, {"remark": "\u6dfb\u52a0\u7ec8\u7aef:\u5e3d\u5b50\u786c\u4ef6/\u7ec8\u7aef\u540d\u5b57",
  "createdAt": "2021-04-27 10:57:56", "operateCategory": 1, "account": "13989145375",
  "organizationName": "\u7ec4\u7ec71", "name": "\u8d75\u9756", "id": 237}, {"remark":
  "\u6dfb\u52a0\u7ec8\u7aef:\u5e3d\u5b50\u786c\u4ef6/\u7ec8\u7aef\u540d\u5b57", "createdAt":
  "2021-04-27 10:57:54", "operateCategory": 1, "account": "13989145375", "organizationName":
  "\u7ec4\u7ec71", "name": "\u8d75\u9756", "id": 236}, {"remark": "\u4fee\u6539\u7ec4\u7ec7:\u7ec4\u7ec71",
  "createdAt": "2021-04-27 10:57:21", "operateCategory": 2, "account": "13989145375",
  "organizationName": "\u7ec4\u7ec71", "name": "\u8d75\u9756", "id": 235}, {"remark":
  "\u6dfb\u52a0\u7ec8\u7aef:\u5e3d\u5b50\u786c\u4ef6/\u7ec8\u7aef\u540d\u5b57", "createdAt":
  "2021-04-27 10:38:01", "operateCategory": 1, "account": "13989145375", "organizationName":
  "\u7ec4\u7ec71", "name": "\u8d75\u9756", "id": 234}, {"remark": "\u6dfb\u52a0\u7ec8\u7aef:\u5e3d\u5b50\u786c\u4ef6/\u7ec8\u7aef\u540d\u5b57",
  "createdAt": "2021-04-27 10:37:48", "operateCategory": 1, "account": "13989145375",
  "organizationName": "\u7ec4\u7ec71", "name": "\u8d75\u9756", "id": 233}, {"remark":
  "\u6dfb\u52a0\u7ec8\u7aef:\u5e3d\u5b50\u786c\u4ef6/\u7ec8\u7aef\u540d\u5b57", "createdAt":
  "2021-04-27 10:37:45", "operateCategory": 1, "account": "13989145375", "organizationName":
  "\u7ec4\u7ec71", "name": "\u8d75\u9756", "id": 232}, {"remark": "\u6dfb\u52a0\u7ec8\u7aef:\u5e3d\u5b50\u786c\u4ef6/\u7ec8\u7aef\u540d\u5b57",
  "createdAt": "2021-04-27 10:37:44", "operateCategory": 1, "account": "13989145375",
  "organizationName": "\u7ec4\u7ec71", "name": "\u8d75\u9756", "id": 231}, {"remark":
  "\u6dfb\u52a0\u7ec8\u7aef:\u5e3d\u5b50\u786c\u4ef6/\u7ec8\u7aef\u540d\u5b57", "createdAt":
  "2021-04-27 10:37:42", "operateCategory": 1, "account": "13989145375", "organizationName":
  "\u7ec4\u7ec71", "name": "\u8d75\u9756", "id": 230}, {"remark": "\u6dfb\u52a0\u7ec8\u7aef:\u5e3d\u5b50\u786c\u4ef6/\u7ec8\u7aef\u540d\u5b57",
  "createdAt": "2021-04-27 10:37:41", "operateCategory": 1, "account": "13989145375",
  "organizationName": "\u7ec4\u7ec71", "name": "\u8d75\u9756", "id": 229}, {"remark":
  "\u6dfb\u52a0\u7ec8\u7aef:\u5e3d\u5b50\u786c\u4ef6/\u7ec8\u7aef\u540d\u5b57", "createdAt":
  "2021-04-27 10:37:29", "operateCategory": 1, "account": "13989145375", "organizationName":
  "\u7ec4\u7ec71", "name": "\u8d75\u9756", "id": 228}, {"remark": "\u6dfb\u52a0\u7ec8\u7aef:\u5e3d\u5b50\u786c\u4ef6/\u7ec8\u7aef\u540d\u5b57",
  "createdAt": "2021-04-27 10:37:18", "operateCategory": 1, "account": "13989145375",
  "organizationName": "\u7ec4\u7ec71", "name": "\u8d75\u9756", "id": 227}, {"remark":
  "\u6dfb\u52a0\u7ec8\u7aef:\u5e3d\u5b50\u786c\u4ef6/\u7ec8\u7aef\u540d\u5b57", "createdAt":
  "2021-04-27 10:37:17", "operateCategory": 1, "account": "13989145375", "organizationName":
  "\u7ec4\u7ec71", "name": "\u8d75\u9756", "id": 226}, {"remark": "\u6dfb\u52a0\u7ec8\u7aef:\u5e3d\u5b50\u786c\u4ef6/\u7ec8\u7aef\u540d\u5b57",
  "createdAt": "2021-04-27 10:37:15", "operateCategory": 1, "account": "13989145375",
  "organizationName": "\u7ec4\u7ec71", "name": "\u8d75\u9756", "id": 225}, {"remark":
  "\u6dfb\u52a0\u7ec8\u7aef:\u5e3d\u5b50\u786c\u4ef6/\u7ec8\u7aef\u540d\u5b57", "createdAt":
  "2021-04-27 10:37:14", "operateCategory": 1, "account": "13989145375", "organizationName":
  "\u7ec4\u7ec71", "name": "\u8d75\u9756", "id": 224}, {"remark": "\u6dfb\u52a0\u7ec8\u7aef:\u5e3d\u5b50\u786c\u4ef6/\u7ec8\u7aef\u540d\u5b57",
  "createdAt": "2021-04-27 10:37:01", "operateCategory": 1, "account": "13989145375",
  "organizationName": "\u7ec4\u7ec71", "name": "\u8d75\u9756", "id": 223}, {"remark":
  "\u6dfb\u52a0\u7ec8\u7aef:\u5e3d\u5b50\u786c\u4ef6/\u7ec8\u7aef\u540d\u5b57", "createdAt":
  "2021-04-27 10:36:29", "operateCategory": 1, "account": "13989145375", "organizationName":
  "\u7ec4\u7ec71", "name": "\u8d75\u9756", "id": 222}, {"remark": "\u6dfb\u52a0\u7ec8\u7aef:\u5e3d\u5b50\u786c\u4ef6/\u7ec8\u7aef\u540d\u5b57",
  "createdAt": "2021-04-27 10:36:04", "operateCategory": 1, "account": "13989145375",
  "organizationName": "\u7ec4\u7ec71", "name": "\u8d75\u9756", "id": 221}, {"remark":
  "\u6dfb\u52a0\u7ec8\u7aef:\u5e3d\u5b50\u786c\u4ef6/\u7ec8\u7aef\u540d\u5b57", "createdAt":
  "2021-04-27 10:36:00", "operateCategory": 1, "account": "13989145375", "organizationName":
  "\u7ec4\u7ec71", "name": "\u8d75\u9756", "id": 220}, {"remark": "\u6dfb\u52a0\u7ec8\u7aef:\u5e3d\u5b50\u786c\u4ef6/\u7ec8\u7aef\u540d\u5b57",
  "createdAt": "2021-04-27 10:35:58", "operateCategory": 1, "account": "13989145375",
  "organizationName": "\u7ec4\u7ec71", "name": "\u8d75\u9756", "id": 219}, {"remark":
  "\u6dfb\u52a0\u7ec8\u7aef:\u5e3d\u5b50\u786c\u4ef6/\u7ec8\u7aef\u540d\u5b57", "createdAt":
  "2021-04-27 10:35:40", "operateCategory": 1, "account": "13989145375", "organizationName":
  "\u7ec4\u7ec71", "name": "\u8d75\u9756", "id": 218}, {"remark": "\u6dfb\u52a0\u7ec8\u7aef:\u5e3d\u5b50\u786c\u4ef6/\u7ec8\u7aef\u540d\u5b57",
  "createdAt": "2021-04-27 10:35:25", "operateCategory": 1, "account": "13989145375",
  "organizationName": "\u7ec4\u7ec71", "name": "\u8d75\u9756", "id": 217}, {"remark":
  "\u6dfb\u52a0\u7ec8\u7aef:\u5e3d\u5b50\u786c\u4ef6/\u7ec8\u7aef\u540d\u5b57", "createdAt":
  "2021-04-27 10:35:19", "operateCategory": 1, "account": "13989145375", "organizationName":
  "\u7ec4\u7ec71", "name": "\u8d75\u9756", "id": 216}, {"remark": "\u6dfb\u52a0\u7ec8\u7aef:\u5e3d\u5b50\u786c\u4ef6/\u7ec8\u7aef\u540d\u5b57",
  "createdAt": "2021-04-27 10:35:15", "operateCategory": 1, "account": "13989145375",
  "organizationName": "\u7ec4\u7ec71", "name": "\u8d75\u9756", "id": 215}, {"remark":
  "\u6dfb\u52a0\u7ec8\u7aef:\u5e3d\u5b50\u786c\u4ef6/\u7ec8\u7aef\u540d\u5b57", "createdAt":
  "2021-04-27 10:35:02", "operateCategory": 1, "account": "13989145375", "organizationName":
  "\u7ec4\u7ec71", "name": "\u8d75\u9756", "id": 214}, {"remark": "\u6dfb\u52a0\u7ec8\u7aef:\u5e3d\u5b50\u786c\u4ef6/\u7ec8\u7aef\u540d\u5b57",
  "createdAt": "2021-04-27 10:35:01", "operateCategory": 1, "account": "13989145375",
  "organizationName": "\u7ec4\u7ec71", "name": "\u8d75\u9756", "id": 213}, {"remark":
  "\u6dfb\u52a0\u7ec8\u7aef:\u5e3d\u5b50\u786c\u4ef6/\u7ec8\u7aef\u540d\u5b57", "createdAt":
  "2021-04-27 10:34:50", "operateCategory": 1, "account": "13989145375", "organizationName":
  "\u7ec4\u7ec71", "name": "\u8d75\u9756", "id": 212}, {"remark": "\u6dfb\u52a0\u7ec8\u7aef:\u5e3d\u5b50\u786c\u4ef6/\u7ec8\u7aef\u540d\u5b57",
  "createdAt": "2021-04-27 10:34:39", "operateCategory": 1, "account": "13989145375",
  "organizationName": "\u7ec4\u7ec71", "name": "\u8d75\u9756", "id": 211}, {"remark":
  "\u6dfb\u52a0\u7ec8\u7aef:\u5e3d\u5b50\u786c\u4ef6/\u7ec8\u7aef\u540d\u5b57", "createdAt":
  "2021-04-27 10:34:28", "operateCategory": 1, "account": "13989145375", "organizationName":
  "\u7ec4\u7ec71", "name": "\u8d75\u9756", "id": 210}, {"remark": "\u6dfb\u52a0\u7ec8\u7aef:\u5e3d\u5b50\u786c\u4ef6/\u7ec8\u7aef\u540d\u5b57",
  "createdAt": "2021-04-27 10:34:26", "operateCategory": 1, "account": "13989145375",
  "organizationName": "\u7ec4\u7ec71", "name": "\u8d75\u9756", "id": 209}, {"remark":
  "\u6dfb\u52a0\u7ec8\u7aef:\u5e3d\u5b50\u786c\u4ef6/\u7ec8\u7aef\u540d\u5b57", "createdAt":
  "2021-04-27 10:34:24", "operateCategory": 1, "account": "13989145375", "organizationName":
  "\u7ec4\u7ec71", "name": "\u8d75\u9756", "id": 208}, {"remark": "\u6dfb\u52a0\u7ec8\u7aef:\u5e3d\u5b50\u786c\u4ef6/\u7ec8\u7aef\u540d\u5b57",
  "createdAt": "2021-04-27 10:34:22", "operateCategory": 1, "account": "13989145375",
  "organizationName": "\u7ec4\u7ec71", "name": "\u8d75\u9756", "id": 207}, {"remark":
  "\u6dfb\u52a0\u7ec8\u7aef:\u5e3d\u5b50\u786c\u4ef6/\u7ec8\u7aef\u540d\u5b57", "createdAt":
  "2021-04-27 10:34:21", "operateCategory": 1, "account": "13989145375", "organizationName":
  "\u7ec4\u7ec71", "name": "\u8d75\u9756", "id": 206}, {"remark": "\u6dfb\u52a0\u7ec8\u7aef:\u5e3d\u5b50\u786c\u4ef6/\u7ec8\u7aef\u540d\u5b57",
  "createdAt": "2021-04-27 10:34:11", "operateCategory": 1, "account": "13989145375",
  "organizationName": "\u7ec4\u7ec71", "name": "\u8d75\u9756", "id": 205}, {"remark":
  "\u6dfb\u52a0\u7ec8\u7aef:\u5e3d\u5b50\u786c\u4ef6/\u7ec8\u7aef\u540d\u5b57", "createdAt":
  "2021-04-27 10:34:07", "operateCategory": 1, "account": "13989145375", "organizationName":
  "\u7ec4\u7ec71", "name": "\u8d75\u9756", "id": 204}, {"remark": "\u6dfb\u52a0\u7ec8\u7aef:\u5e3d\u5b50\u786c\u4ef6/\u7ec8\u7aef\u540d\u5b57",
  "createdAt": "2021-04-27 10:33:57", "operateCategory": 1, "account": "13989145375",
  "organizationName": "\u7ec4\u7ec71", "name": "\u8d75\u9756", "id": 203}, {"remark":
  "\u6dfb\u52a0\u7ec8\u7aef:\u5e3d\u5b50\u786c\u4ef6/\u7ec8\u7aef\u540d\u5b57", "createdAt":
  "2021-04-27 10:33:36", "operateCategory": 1, "account": "13989145375", "organizationName":
  "\u7ec4\u7ec71", "name": "\u8d75\u9756", "id": 202}, {"remark": "\u6dfb\u52a0\u7ec8\u7aef:\u5e3d\u5b50\u786c\u4ef6/\u7ec8\u7aef\u540d\u5b57",
  "createdAt": "2021-04-27 10:33:32", "operateCategory": 1, "account": "13989145375",
  "organizationName": "\u7ec4\u7ec71", "name": "\u8d75\u9756", "id": 201}, {"remark":
  "\u6dfb\u52a0\u7ec8\u7aef:\u5e3d\u5b50\u786c\u4ef6/\u7ec8\u7aef\u540d\u5b57", "createdAt":
  "2021-04-27 10:33:29", "operateCategory": 1, "account": "13989145375", "organizationName":
  "\u7ec4\u7ec71", "name": "\u8d75\u9756", "id": 200}, {"remark": "\u6dfb\u52a0\u7ec8\u7aef:\u5e3d\u5b50\u786c\u4ef6/\u7ec8\u7aef\u540d\u5b57",
  "createdAt": "2021-04-27 10:33:24", "operateCategory": 1, "account": "13989145375",
  "organizationName": "\u7ec4\u7ec71", "name": "\u8d75\u9756", "id": 199}, {"remark":
  "\u6dfb\u52a0\u7ec8\u7aef:\u5e3d\u5b50\u786c\u4ef6/\u7ec8\u7aef\u540d\u5b57", "createdAt":
  "2021-04-27 10:33:18", "operateCategory": 1, "account": "13989145375", "organizationName":
  "\u7ec4\u7ec71", "name": "\u8d75\u9756", "id": 198}, {"remark": "\u6dfb\u52a0\u7ec8\u7aef:\u5e3d\u5b50\u786c\u4ef6/\u7ec8\u7aef\u540d\u5b57",
  "createdAt": "2021-04-27 10:33:15", "operateCategory": 1, "account": "13989145375",
  "organizationName": "\u7ec4\u7ec71", "name": "\u8d75\u9756", "id": 197}, {"remark":
  "\u6dfb\u52a0\u7ec8\u7aef:\u5e3d\u5b50\u786c\u4ef6/\u7ec8\u7aef\u540d\u5b57", "createdAt":
  "2021-04-27 10:33:02", "operateCategory": 1, "account": "13989145375", "organizationName":
  "\u7ec4\u7ec71", "name": "\u8d75\u9756", "id": 196}, {"remark": "\u6dfb\u52a0\u7ec8\u7aef:\u5e3d\u5b50\u786c\u4ef6/\u7ec8\u7aef\u540d\u5b57",
  "createdAt": "2021-04-27 10:32:59", "operateCategory": 1, "account": "13989145375",
  "organizationName": "\u7ec4\u7ec71", "name": "\u8d75\u9756", "id": 195}, {"remark":
  "\u6dfb\u52a0\u7ec8\u7aef:\u5e3d\u5b50\u786c\u4ef6/\u7ec8\u7aef\u540d\u5b57", "createdAt":
  "2021-04-27 10:32:57", "operateCategory": 1, "account": "13989145375", "organizationName":
  "\u7ec4\u7ec71", "name": "\u8d75\u9756", "id": 194}, {"remark": "\u6dfb\u52a0\u7ec8\u7aef:\u5e3d\u5b50\u786c\u4ef6/\u7ec8\u7aef\u540d\u5b57",
  "createdAt": "2021-04-27 10:32:55", "operateCategory": 1, "account": "13989145375",
  "organizationName": "\u7ec4\u7ec71", "name": "\u8d75\u9756", "id": 193}, {"remark":
  "\u6dfb\u52a0\u7ec8\u7aef:\u5e3d\u5b50\u786c\u4ef6/\u7ec8\u7aef\u540d\u5b57", "createdAt":
  "2021-04-27 10:32:53", "operateCategory": 1, "account": "13989145375", "organizationName":
  "\u7ec4\u7ec71", "name": "\u8d75\u9756", "id": 192}, {"remark": "\u6dfb\u52a0\u7ec8\u7aef:\u5e3d\u5b50\u786c\u4ef6/\u7ec8\u7aef\u540d\u5b57",
  "createdAt": "2021-04-27 10:32:40", "operateCategory": 1, "account": "13989145375",
  "organizationName": "\u7ec4\u7ec71", "name": "\u8d75\u9756", "id": 191}, {"remark":
  "\u6dfb\u52a0\u7ec8\u7aef:\u5e3d\u5b50\u786c\u4ef6/\u7ec8\u7aef\u540d\u5b57", "createdAt":
  "2021-04-27 10:32:37", "operateCategory": 1, "account": "13989145375", "organizationName":
  "\u7ec4\u7ec71", "name": "\u8d75\u9756", "id": 190}, {"remark": "\u6dfb\u52a0\u7ec8\u7aef:\u5e3d\u5b50\u786c\u4ef6/\u7ec8\u7aef\u540d\u5b57",
  "createdAt": "2021-04-27 10:32:34", "operateCategory": 1, "account": "13989145375",
  "organizationName": "\u7ec4\u7ec71", "name": "\u8d75\u9756", "id": 189}, {"remark":
  "\u6dfb\u52a0\u7ec8\u7aef:\u5e3d\u5b50\u786c\u4ef6/\u7ec8\u7aef\u540d\u5b57", "createdAt":
  "2021-04-27 10:32:24", "operateCategory": 1, "account": "13989145375", "organizationName":
  "\u7ec4\u7ec71", "name": "\u8d75\u9756", "id": 188}, {"remark": "\u6dfb\u52a0\u7ec8\u7aef:\u5e3d\u5b50\u786c\u4ef6/\u7ec8\u7aef\u540d\u5b57",
  "createdAt": "2021-04-27 10:32:14", "operateCategory": 1, "account": "13989145375",
  "organizationName": "\u7ec4\u7ec71", "name": "\u8d75\u9756", "id": 187}, {"remark":
  "\u6dfb\u52a0\u7ec8\u7aef:\u5e3d\u5b50\u786c\u4ef6/\u7ec8\u7aef\u540d\u5b57", "createdAt":
  "2021-04-27 10:32:11", "operateCategory": 1, "account": "13989145375", "organizationName":
  "\u7ec4\u7ec71", "name": "\u8d75\u9756", "id": 186}, {"remark": "\u6dfb\u52a0\u7ec8\u7aef:\u5e3d\u5b50\u786c\u4ef6/\u7ec8\u7aef\u540d\u5b57",
  "createdAt": "2021-04-27 10:32:07", "operateCategory": 1, "account": "13989145375",
  "organizationName": "\u7ec4\u7ec71", "name": "\u8d75\u9756", "id": 185}, {"remark":
  "\u6dfb\u52a0\u7ec8\u7aef:\u5e3d\u5b50\u786c\u4ef6/\u7ec8\u7aef\u540d\u5b57", "createdAt":
  "2021-04-27 10:32:04", "operateCategory": 1, "account": "13989145375", "organizationName":
  "\u7ec4\u7ec71", "name": "\u8d75\u9756", "id": 184}, {"remark": "\u6dfb\u52a0\u7ec8\u7aef:\u5e3d\u5b50\u786c\u4ef6/\u7ec8\u7aef\u540d\u5b57",
  "createdAt": "2021-04-27 10:32:03", "operateCategory": 1, "account": "13989145375",
  "organizationName": "\u7ec4\u7ec71", "name": "\u8d75\u9756", "id": 183}, {"remark":
  "\u6dfb\u52a0\u7ec8\u7aef:\u5e3d\u5b50\u786c\u4ef6/\u7ec8\u7aef\u540d\u5b57", "createdAt":
  "2021-04-27 10:25:47", "operateCategory": 1, "account": "13989145375", "organizationName":
  "\u7ec4\u7ec71", "name": "\u8d75\u9756", "id": 182}, {"remark": "\u6dfb\u52a0\u7ec8\u7aef:\u5e3d\u5b50\u786c\u4ef6/\u7ec8\u7aef\u540d\u5b57",
  "createdAt": "2021-04-27 10:25:45", "operateCategory": 1, "account": "13989145375",
  "organizationName": "\u7ec4\u7ec71", "name": "\u8d75\u9756", "id": 181}, {"remark":
  "\u6dfb\u52a0\u7ec8\u7aef:\u5e3d\u5b50\u786c\u4ef6/\u7ec8\u7aef\u540d\u5b57", "createdAt":
  "2021-04-27 10:25:40", "operateCategory": 1, "account": "13989145375", "organizationName":
  "\u7ec4\u7ec71", "name": "\u8d75\u9756", "id": 180}, {"remark": "\u6dfb\u52a0\u7ec8\u7aef:\u5e3d\u5b50\u786c\u4ef6/\u7ec8\u7aef\u540d\u5b57",
  "createdAt": "2021-04-27 10:25:39", "operateCategory": 1, "account": "13989145375",
  "organizationName": "\u7ec4\u7ec71", "name": "\u8d75\u9756", "id": 179}, {"remark":
  "\u6dfb\u52a0\u7ec8\u7aef:\u5e3d\u5b50\u786c\u4ef6/\u7ec8\u7aef\u540d\u5b57", "createdAt":
  "2021-04-27 10:25:37", "operateCategory": 1, "account": "13989145375", "organizationName":
  "\u7ec4\u7ec71", "name": "\u8d75\u9756", "id": 178}, {"remark": "\u6dfb\u52a0\u7ec8\u7aef:\u5e3d\u5b50\u786c\u4ef6/\u7ec8\u7aef\u540d\u5b57",
  "createdAt": "2021-04-27 10:25:34", "operateCategory": 1, "account": "13989145375",
  "organizationName": "\u7ec4\u7ec71", "name": "\u8d75\u9756", "id": 177}, {"remark":
  "\u6dfb\u52a0\u7ec8\u7aef:\u5e3d\u5b50\u786c\u4ef6/\u7ec8\u7aef\u540d\u5b57", "createdAt":
  "2021-04-27 10:25:32", "operateCategory": 1, "account": "13989145375", "organizationName":
  "\u7ec4\u7ec71", "name": "\u8d75\u9756", "id": 176}, {"remark": "\u6dfb\u52a0\u7ec8\u7aef:\u5e3d\u5b50\u786c\u4ef6/\u7ec8\u7aef\u540d\u5b57",
  "createdAt": "2021-04-27 10:25:31", "operateCategory": 1, "account": "13989145375",
  "organizationName": "\u7ec4\u7ec71", "name": "\u8d75\u9756", "id": 175}, {"remark":
  "\u6dfb\u52a0\u7ec8\u7aef:\u5e3d\u5b50\u786c\u4ef6/\u7ec8\u7aef\u540d\u5b57", "createdAt":
  "2021-04-27 10:25:19", "operateCategory": 1, "account": "13989145375", "organizationName":
  "\u7ec4\u7ec71", "name": "\u8d75\u9756", "id": 174}, {"remark": "\u4fee\u6539\u7ec4\u7ec7:\u7ec4\u7ec71",
  "createdAt": "2021-04-27 10:24:59", "operateCategory": 2, "account": "13989145375",
  "organizationName": "\u7ec4\u7ec71", "name": "\u8d75\u9756", "id": 173}, {"remark":
  "\u4fee\u6539\u7ec4\u7ec7:\u7ec4\u7ec71", "createdAt": "2021-04-27 10:24:33", "operateCategory":
  2, "account": "13989145375", "organizationName": "\u7ec4\u7ec71", "name": "\u8d75\u9756",
  "id": 172}, {"remark": "\u6dfb\u52a0\u7ec8\u7aef:\u5e3d\u5b50\u786c\u4ef6/\u7ec8\u7aef\u540d\u5b57",
  "createdAt": "2021-04-27 10:21:35", "operateCategory": 1, "account": "13989145375",
  "organizationName": "\u7ec4\u7ec71", "name": "\u8d75\u9756", "id": 171}, {"remark":
  "\u6dfb\u52a0\u7ec8\u7aef:\u5e3d\u5b50\u786c\u4ef6/\u7ec8\u7aef\u540d\u5b57", "createdAt":
  "2021-04-27 10:21:33", "operateCategory": 1, "account": "13989145375", "organizationName":
  "\u7ec4\u7ec71", "name": "\u8d75\u9756", "id": 170}, {"remark": "\u6dfb\u52a0\u7ec8\u7aef:\u5e3d\u5b50\u786c\u4ef6/\u7ec8\u7aef\u540d\u5b57",
  "createdAt": "2021-04-27 10:21:22", "operateCategory": 1, "account": "13989145375",
  "organizationName": "\u7ec4\u7ec71", "name": "\u8d75\u9756", "id": 169}, {"remark":
  "\u6dfb\u52a0\u7ec8\u7aef:\u5e3d\u5b50\u786c\u4ef6/\u7ec8\u7aef\u540d\u5b57", "createdAt":
  "2021-04-27 10:21:11", "operateCategory": 1, "account": "13989145375", "organizationName":
  "\u7ec4\u7ec71", "name": "\u8d75\u9756", "id": 168}, {"remark": "\u6dfb\u52a0\u7ec8\u7aef:\u5e3d\u5b50\u786c\u4ef6/\u7ec8\u7aef\u540d\u5b57",
  "createdAt": "2021-04-27 10:21:01", "operateCategory": 1, "account": "13989145375",
  "organizationName": "\u7ec4\u7ec71", "name": "\u8d75\u9756", "id": 167}, {"remark":
  "\u6dfb\u52a0\u7ec8\u7aef:\u5e3d\u5b50\u786c\u4ef6/\u7ec8\u7aef\u540d\u5b57", "createdAt":
  "2021-04-27 10:20:50", "operateCategory": 1, "account": "13989145375", "organizationName":
  "\u7ec4\u7ec71", "name": "\u8d75\u9756", "id": 166}, {"remark": "\u6dfb\u52a0\u7ec8\u7aef:\u5e3d\u5b50\u786c\u4ef6/\u7ec8\u7aef\u540d\u5b57",
  "createdAt": "2021-04-27 10:20:49", "operateCategory": 1, "account": "13989145375",
  "organizationName": "\u7ec4\u7ec71", "name": "\u8d75\u9756", "id": 165}]}}'
